Trabalho 1
…
tabela1_questao3$Polegadas <- as.numeric(unlist(tabela1_questao3$Polegadas))

tabela2_questao3 <- tabela1_questao3 %>%
  select(Polegadas) %>%
  group_by(Polegadas) %>%
  drop_na() %>%
  filter(Polegadas > 5) %>%
  tally()

colnames(tabela2_questao3) <- c("Polegadas","Quantidade vendida")

tabela1_questao3

# A tibble: 5,469 × 2
   Televisão                                                             Poleg…¹
   <chr>                                                                   <dbl>
 1 "Smart TV LED 43\" LG 43UJ6525 Ultra HD 4K com Conversor Digital 4 H…      43
 2 "Smart TV LED 65\" Samsung 65MU6100 UHD 4K HDR Premium com Conversor…      65
 3 "Smart TV Android LED 49\" TCL C2 49C2US Ultra HD 4K com Conversor D…      49
 4 "Smart TV LED Philips 43\" 43pfg5102/78 com Conversor Digital Wi-Fi …      43
 5 "Smart TV LED 43\" Philips 43PUG6102/78 Ultra HD 4k com Conversor Di…      43
 6 "Smart TV LED 43\" AOC LE43U7970 Ultra HD 4k com Conversor Digital 3…      43
 7 "Smart TV LED 39\" Philco PH39N86DSGW HD com Conversor Digital 3 HDM…      39
 8 "Smart TV LED  32\" LG 32LJ600B  HD  com Conversor Digital Wi-Fi int…      32
 9 "Smart TV LED LG 55\" SUPER ULTRA HD 55SJ8000 Conversor Digital Wi-F…      55
10 "Smart TV LED 43\" LG 43lj5500 Full HD com Conversor Digital Wi-Fi i…      43
# … with 5,459 more rows, and abbreviated variable name ¹​Polegadas
…
rm(dados)

data <- data %>%
  mutate(data = str_glue('{dia} de {mes},{ano}')) %>%
  select(data)

df <- cbind(df,data)

as_tibble(df)

# A tibble: 132,373 × 15
   submission_date     reviewe…¹ produ…² produ…³ produ…⁴ site_…⁵ site_…⁶ revie…⁷
   <dttm>              <chr>       <dbl> <chr>   <chr>   <chr>   <chr>   <chr>  
 1 2018-01-01 00:11:28 d0fb1ca6…  1.33e8 "Noteb… <NA>    Inform… Notebo… Bom    
 2 2018-01-01 00:13:48 014d6dc5…  2.26e7 "Copo … <NA>    Utilid… Copos,… Preço …
 3 2018-01-01 00:26:02 44f2c8ed…  1.13e8 "Panel… philip… Eletro… Panela… ATENDE…
 4 2018-01-01 00:35:54 ce741665…  1.14e8 "Beton… roma j… Brinqu… Veícul… presen…
 5 2018-01-01 01:00:28 7d7b6b18…  1.32e8 "Smart… lg      TV e H… TV      Sem du…
 6 2018-01-01 01:27:23 28b1844e…  2.26e7 "Copo … <NA>    Utilid… Copos,… Produt…
 7 2018-01-01 01:54:38 48907a04…  2.26e7 "Copo … <NA>    Utilid… Copos,… ótimo  
 8 2018-01-01 01:58:17 e039cbff…  1.32e8 "Smart… <NA>    Celula… Smartp… Gostei…
 9 2018-01-01 02:02:13 a0fd1ad3…  1.23e8 "Venti… ventis… Casa e… Climat… Gostei…
10 2018-01-01 02:16:06 eb1cceab…  2.35e7 "Kit 1… <NA>    Casa e… Ilumin… NÃO RE…
# … with 132,363 more rows, 7 more variables: overall_rating <dbl>,
#   recommend_to_a_friend <chr>, review_text <chr>, reviewer_birth_year <dbl>,
#   reviewer_gender <chr>, reviewer_state <chr>, data <glue>, and abbreviated
#   variable names ¹​reviewer_id, ²​product_id, ³​product_name, ⁴​product_brand,
#   ⁵​site_category_lv1, ⁶​site_category_lv2, ⁷​review_title
…
